<?xml version="1.0" encoding="UTF-8"?>
<svg xmlns="http://www.w3.org/2000/svg" version="1.1" width="240" height="200">
    <path d="M 20,110 80,170 220,30" style="stroke:#fff; stroke-width:30; fill:none" />
</svg>
